unit_id,lat,lon,radius,year,att_7,att_8,att_9,att_69,att_61,att_66
29319598,29.31959,-82.428493,30,2005,380194172,83476912,6199632,18637279,759197,35278652
29319598,29.31959,-82.428493,30,2008,361145571,77511951,6609839,17888638,723848,34026202
29319598,29.31959,-82.428493,30,2011,353747280,69228411,6751964,17443865,686818,33469589
29319598,29.31959,-82.428493,30,2014,374662704,84457643,5802556,20197596,744461,33704427
29319598,29.31959,-82.428493,30,2017,356953707,86188780,5765930,20666858,678129,31772012
29619828,29.619828,-83.095343,30,2005,631867518,128865001,6254082,20569147,782723,53739772
29619828,29.619828,-83.095343,30,2008,601967587,116151192,6460527,19247240,769229,50990086
29619828,29.619828,-83.095343,30,2011,587162624,115612590,5836320,19703975,780022,48577001
29619828,29.619828,-83.095343,30,2014,570272792,119049867,6022627,21061341,796241,48801620
29619828,29.619828,-83.095343,30,2017,532027443,110515197,7400199,21719718,818662,47161337
29873227,29.873227,-81.387074,50,2005,956145768,206205172,10167548,36119523,1359736,91755833
29873227,29.873227,-81.387074,50,2008,918702342,197075801,9421416,35375616,1275797,86437801
29873227,29.873227,-81.387074,50,2011,870863051,190155851,10664960,35078144,1203556,82729311
29873227,29.873227,-81.387074,50,2014,863442712,202946485,11733169,38634675,1255592,83106466
29873227,29.873227,-81.387074,50,2017,837389616,201402069,10459328,38220836,1233624,79630379
30738056,30.738056,-85.3925,50,2005,1695115390,353038600,11300311,62557877,2481142,127712787
30738056,30.738056,-85.3925,50,2008,1635402510,371020012,12762063,64382535,2451718,128226123
30738056,30.738056,-85.3925,50,2011,1625187710,375850180,14234759,70580362,2642969,129608504
30738056,30.738056,-85.3925,50,2014,1584657010,344916726,16195471,74843357,2640630,128641351
30738056,30.738056,-85.3925,50,2017,1506522773,338958259,16902290,76065959,2563950,127052896
30795328,30.795328,-89.128886,50,2005,2053602414,351900831,30991285,69258098,2729859,71283505
30795328,30.795328,-89.128886,50,2008,2050862947,350693540,31938633,68825936,2710425,70875899
30795328,30.795328,-89.128886,50,2011,2037282982,340518078,28630011,68342810,2680697,71052987
30795328,30.795328,-89.128886,50,2014,1958876008,333213918,22956271,69063951,2526055,69915672
30795328,30.795328,-89.128886,50,2017,1951196745,347196343,15813831,76849583,2576207,69324574
31182041,31.18204167,-82.13737222,30,2005,859287193,199477662,5076262,25135572,833921,65178382
31182041,31.18204167,-82.13737222,30,2008,849487308,206147580,6981516,25747056,843295,62450038
31182041,31.18204167,-82.13737222,30,2011,751702384,193968481,7547871,25763234,852482,61500597
31182041,31.18204167,-82.13737222,30,2014,655078740,169196835,8690481,25721656,828413,62617192
31182041,31.18204167,-82.13737222,30,2017,657550465,167835344,7866540,27550442,864685,62258007
31208614,31.208614,-81.95505,50,2005,2046143630,454777204,13628178,64476323,2189798,153220747
31208614,31.208614,-81.95505,50,2008,2025768421,481036411,19318061,67268433,2284612,151619205
31208614,31.208614,-81.95505,50,2011,1863830100,482817059,20397259,69587828,2320424,150031105
31208614,31.208614,-81.95505,50,2014,1693919973,431768206,20064584,70042144,2274994,148037259
31208614,31.208614,-81.95505,50,2017,1676575389,416581034,17416774,72944042,2289424,145449028
31258221,31.258221,-82.408639,50,2005,2400127323,525696269,13650157,72684943,2398104,176736165
31258221,31.258221,-82.408639,50,2008,2438345967,545319471,17973761,74452112,2482599,175036608
31258221,31.258221,-82.408639,50,2011,2283750041,531630317,17734833,75798874,2510808,173775393
31258221,31.258221,-82.408639,50,2014,2038053720,488544133,18844475,76412713,2443073,172937244
31258221,31.258221,-82.408639,50,2017,1939351746,461606276,17386457,79296167,2487938,170298867
31815192,31.815192,-82.4677134,50,2005,2326318397,482036444,14706297,77377733,2759653,167595423
31815192,31.815192,-82.4677134,50,2008,2339635965,506145738,17326446,81440230,2877002,166330398
31815192,31.815192,-82.4677134,50,2011,2215077406,494950660,17271629,84095299,2877841,166916889
31815192,31.815192,-82.4677134,50,2014,2093096839,463168379,18605230,86738804,2844010,165630834
31815192,31.815192,-82.4677134,50,2017,1987562371,439706616,16951496,89841440,2853494,162500634
31858032,31.858032,-82.575929,50,2005,2334458399,466682075,14108788,75190851,2692029,160828691
31858032,31.858032,-82.575929,50,2008,2353443836,487692364,16314314,79347291,2804202,159272748
31858032,31.858032,-82.575929,50,2011,2207972124,478332818,16177726,81637520,2809920,160155364
31858032,31.858032,-82.575929,50,2014,2085748285,458855902,18453673,84290007,2782651,159720763
31858032,31.858032,-82.575929,50,2017,1958658820,435800455,16971828,86952951,2788534,155791442
31879301,31.879301,-92.278595,50,2005,1849798122,342404645,10308712,72808725,2701495,61751129
31879301,31.879301,-92.278595,50,2008,1829364034,332697146,10491362,72600863,2700237,62498396
31879301,31.879301,-92.278595,50,2011,1849340146,352843067,11217878,76119206,2779846,63414132
31879301,31.879301,-92.278595,50,2014,1900813838,358381382,12469149,78972356,2843737,64069199
31879301,31.879301,-92.278595,50,2017,1903946087,377026381,11660184,84176635,3027704,65635488
31922692,31.922692,-82.678022,50,2005,2277812941,464583343,13749544,73497388,2649960,151895222
31922692,31.922692,-82.678022,50,2008,2301459574,479320168,16146336,77399912,2768928,151311636
31922692,31.922692,-82.678022,50,2011,2152804976,470487801,15431785,79612053,2794803,153178019
31922692,31.922692,-82.678022,50,2014,2078919535,450994630,17270582,82793021,2778808,152620784
31922692,31.922692,-82.678022,50,2017,1937577630,425296890,16464269,85155681,2757205,148251874
32045616,32.045616,-88.7333,50,2005,3227817650,494041248,23933632,94962590,3300297,79457264
32045616,32.045616,-88.7333,50,2008,3317679734,525011383,26003316,98215014,3370802,80546570
32045616,32.045616,-88.7333,50,2011,3328558528,519280725,24530850,98415727,3287558,80313509
32045616,32.045616,-88.7333,50,2014,3256702079,517561531,19447261,101974546,3211204,79681062
32045616,32.045616,-88.7333,50,2017,3155457447,541323744,21445614,113018142,3238567,78676264
32416218,32.41621,-86.869736,50,2005,2573089595,414943443,16888043,76406864,2863097,67472833
32416218,32.41621,-86.869736,50,2008,2557265647,428743973,19459018,79258685,2902280,67913286
32416218,32.41621,-86.869736,50,2011,2569782885,419269791,19125870,79551362,2886159,68334234
32416218,32.41621,-86.869736,50,2014,2550424625,410990788,20102618,84087446,2898308,68742866
32416218,32.41621,-86.869736,50,2017,2592386760,427731836,18930176,91600294,2955658,68890517
32475551,32.475551,-81.024512,30,2005,649397929,149051957,5470003,29825947,1128014,44738205
32475551,32.475551,-81.024512,30,2008,656773301,161364902,5308558,30455354,1141544,45183031
32475551,32.475551,-81.024512,30,2011,640524569,150047772,5924651,31644219,1145251,45415806
32475551,32.475551,-81.024512,30,2014,623663516,136639164,5459252,31457848,1138199,44386864
32475551,32.475551,-81.024512,30,2017,604582190,129324031,5947468,32149946,1164266,44535832
32530898,32.530898,-82.338228,50,2005,2318010897,482937717,13912353,77126346,3210062,142688181
32530898,32.530898,-82.338228,50,2008,2336025508,495471386,15349011,80960782,3270595,142353801
32530898,32.530898,-82.338228,50,2011,2277229565,476132227,16145064,84589682,3307581,143752580
32530898,32.530898,-82.338228,50,2014,2234886960,471172340,17744132,88508647,3307700,143244479
32530898,32.530898,-82.338228,50,2017,2184140925,450133762,18259375,93222973,3295453,141266164
32545891,32.545891,-92.250416,30,2005,595594839,104042130,3115368,22334786,875935,22639612
32545891,32.545891,-92.250416,30,2008,653405392,108070510,3302815,22789499,897639,22888674
32545891,32.545891,-92.250416,30,2011,718964169,122290335,3790749,24143739,967014,23328102
32545891,32.545891,-92.250416,30,2014,798171727,139625253,4176444,27462890,1032705,23822211
32545891,32.545891,-92.250416,30,2017,802550024,136406297,4254142,28192675,1013474,23760718
32879694,32.879694,-81.655767,30,2005,796521124,186951322,5546487,32887525,1369947,52454496
32879694,32.879694,-81.655767,30,2008,809555001,196422184,6187425,33918276,1376075,53143607
32879694,32.879694,-81.655767,30,2011,801726167,185404457,7798086,36204439,1419614,52745504
32879694,32.879694,-81.655767,30,2014,729185041,170191469,8410367,35913017,1371921,53120879
32879694,32.879694,-81.655767,30,2017,728947697,158247354,8884893,36771441,1378047,53197766
32964675,32.964675,-84.239575,30,2005,993219762,176511657,6260370,29248650,1348727,42191373
32964675,32.964675,-84.239575,30,2008,996722227,165840995,7847868,31222119,1388206,42162674
32964675,32.964675,-84.239575,30,2011,942477042,159416021,7598665,32201666,1391947,41023822
32964675,32.964675,-84.239575,30,2014,879234491,152590443,7688924,32325598,1372733,40405155
32964675,32.964675,-84.239575,30,2017,829657728,147309589,9164289,34428644,1408121,40562616
33021462,33.021462,-81.318899,30,2005,870496594,198439856,5919694,37585453,1462592,54824230
33021462,33.021462,-81.318899,30,2008,883787861,207262697,5792845,38626623,1495702,55635555
33021462,33.021462,-81.318899,30,2011,856583793,192774013,8005641,40760249,1529107,55449464
33021462,33.021462,-81.318899,30,2014,749036201,180412094,9289533,41045568,1511358,56223251
33021462,33.021462,-81.318899,30,2017,719951375,163189199,9581109,40559615,1466128,57129132
33095784,33.095784,-81.496269,30,2005,817619880,195686072,5782388,34278883,1366903,53074293
33095784,33.095784,-81.496269,30,2008,854474459,205406531,5982484,35936021,1394560,52852976
33095784,33.095784,-81.496269,30,2011,864685319,191201798,7146355,38484327,1440578,53402703
33095784,33.095784,-81.496269,30,2014,739029498,176865967,8680462,38441226,1439690,54276695
33095784,33.095784,-81.496269,30,2017,709546869,157259750,9288065,37624311,1390546,54684740
33159875,33.159875,-88.112102,50,2005,2810916273,400629869,23460991,83508613,3254824,71312596
33159875,33.159875,-88.112102,50,2008,2892235420,430617052,24368343,86409163,3305384,72196885
33159875,33.159875,-88.112102,50,2011,2895315428,436166884,23416634,88991868,3321056,72514815
33159875,33.159875,-88.112102,50,2014,3034801764,443985531,21016157,94972180,3287513,73468348
33159875,33.159875,-88.112102,50,2017,3062585801,450175848,20343506,102722637,3275656,73500216
33355476,33.3554762,-88.0201221,30,2005,1012392805,128956361,8079631,29743606,1142036,25111002
33355476,33.3554762,-88.0201221,30,2008,1052932448,138729874,8925537,30886799,1173492,25268210
33355476,33.3554762,-88.0201221,30,2011,1110778082,153980291,8591413,32842136,1193419,25358742
33355476,33.3554762,-88.0201221,30,2014,1180319702,157652441,7311397,35316229,1223558,26071168
33355476,33.3554762,-88.0201221,30,2017,1198664350,158128253,7940288,37266093,1227262,26282099
33580852,33.580852,-91.792515,30,2005,810068960,117171305,5059794,24577398,945589,22374655
33580852,33.580852,-91.792515,30,2008,753053752,127078312,3990678,25975326,950931,22465235
33580852,33.580852,-91.792515,30,2011,736075343,150832446,3848190,28555810,955254,22753932
33580852,33.580852,-91.792515,30,2014,755969800,167670468,4862534,29384208,959825,23139782
33580852,33.580852,-91.792515,30,2017,726376327,170037707,4583811,29994140,964105,23296434
33987766,33.9877665,-88.4948033,50,2005,2576323952,370470870,19280652,71674165,2739338,60530204
33987766,33.9877665,-88.4948033,50,2008,2677618785,384401358,18736107,75109504,2835479,61130420
33987766,33.9877665,-88.4948033,50,2011,2662028614,400580193,17718070,79990077,2881513,61336190
33987766,33.9877665,-88.4948033,50,2014,2801178140,426001019,15333420,87902496,2924805,63168980
33987766,33.9877665,-88.4948033,50,2017,2798251832,414399181,16966517,96942518,2895627,63220353
34217954,34.2179549,-91.893087,30,2005,406744030,71815988,4583954,18181650,721466,14030572
34217954,34.2179549,-91.893087,30,2008,418455491,83232901,3692232,18967974,734060,15056777
34217954,34.2179549,-91.893087,30,2011,413673709,87944036,3274042,20534725,764256,15361380
34217954,34.2179549,-91.893087,30,2014,440754728,96713389,3891718,22431198,783334,15654869
34217954,34.2179549,-91.893087,30,2017,450641661,97931112,3952796,23858013,815424,15586064
34229084,34.229084,-82.063617,50,2005,2638945895,443054601,23645866,85887135,3612697,99263719
34229084,34.229084,-82.063617,50,2008,2800138357,458641659,26096000,92500649,3770454,100662302
34229084,34.229084,-82.063617,50,2011,2696148107,458747548,26410759,96506632,3823128,101166620
34229084,34.229084,-82.063617,50,2014,2494594123,450668713,24451274,99026783,3797671,97688956
34229084,34.229084,-82.063617,50,2017,2448306063,452651478,21737427,102993286,3880436,97540680
34259709,34.259709,-92.070103,50,2005,1692058832,297704452,15823724,63854268,2446134,49143724
34259709,34.259709,-92.070103,50,2008,1633087286,301870822,11494272,64568214,2401264,50171553
34259709,34.259709,-92.070103,50,2011,1636802778,319150723,9795863,68186238,2412826,51063618
34259709,34.259709,-92.070103,50,2014,1733480170,346721004,13764211,73783345,2500450,51920312
34259709,34.259709,-92.070103,50,2017,1702213785,362565997,14263074,76783934,2525131,51811963
34287592,34.287592,-85.99414,50,2005,1889656495,325093511,21321008,75655807,3043579,54084390
34287592,34.287592,-85.99414,50,2008,1873935887,320361199,19471311,76996137,2993063,53797167
34287592,34.287592,-85.99414,50,2011,1914015667,330272951,19782127,80068546,3037715,54280259
34287592,34.287592,-85.99414,50,2014,1934556008,336432138,22452525,84339775,3037499,54090616
34287592,34.287592,-85.99414,50,2017,1954717747,342192510,25172806,88221872,3095497,54967940
34757597,34.757597,-82.384145,30,2005,656317164,100415365,5914022,25831207,1190084,24165935
34757597,34.757597,-82.384145,30,2008,697938776,103979267,8298364,27127063,1195135,24755136
34757597,34.757597,-82.384145,30,2011,707740870,108857284,8208745,28492984,1217558,24823123
34757597,34.757597,-82.384145,30,2014,678924306,108284501,7716432,28879288,1210511,22962836
34757597,34.757597,-82.384145,30,2017,649969571,110359417,7210412,29818283,1216607,22572018
34796838,34.796838,-79.460653,50,2005,2360227526,405062021,17153933,74100097,3225839,116516731
34796838,34.796838,-79.460653,50,2008,2417034239,391113548,15390671,74475042,3159925,115783643
34796838,34.796838,-79.460653,50,2011,2567369578,399223842,16278566,78313167,3225323,118451049
34796838,34.796838,-79.460653,50,2014,2560722450,418769929,16328585,83785208,3259189,120252207
34796838,34.796838,-79.460653,50,2017,2472513762,420848301,15664294,87370782,3340490,119458309
35169528,35.169528,-87.74635,30,2005,701954284,122605360,10939681,31420088,1208663,19888707
35169528,35.169528,-87.74635,30,2008,701456338,124031091,8572767,32095856,1184192,19452276
35169528,35.169528,-87.74635,30,2011,702923255,123421823,7593400,30954942,1148181,19271254
35169528,35.169528,-87.74635,30,2014,709941652,124868476,8158979,31173449,1102410,19063266
35169528,35.169528,-87.74635,30,2017,732872276,123429721,7346629,31844248,1087863,19168656
35746194,35.746194,-88.541555,30,2005,518523179,95274025,7941514,25556755,1017823,15888502
35746194,35.746194,-88.541555,30,2008,566539548,92536835,6740706,25965364,981155,16072394
35746194,35.746194,-88.541555,30,2011,594613189,101784673,8664661,27986017,1018407,16190003
35746194,35.746194,-88.541555,30,2014,599227103,96873231,6966892,27998295,983191,15543690
35746194,35.746194,-88.541555,30,2017,572550925,98935155,6056051,30434216,1006900,15266659
35761293,35.761293,-80.885286,30,2005,522349983,97032625,7142428,23399471,1040914,17955044
35761293,35.761293,-80.885286,30,2008,558978795,94230998,7114082,23946936,1068226,18516719
35761293,35.761293,-80.885286,30,2011,544097206,93434120,6995081,25153675,1088163,18324186
35761293,35.761293,-80.885286,30,2014,555237328,94596424,6817592,27187933,1149339,18935484
35761293,35.761293,-80.885286,30,2017,547086222,94865456,6523960,28266725,1170705,18202384
35868408,35.868408,-92.117652,30,2005,771051558,166108881,13100222,30095150,1371815,21521048
35868408,35.868408,-92.117652,30,2008,741419618,162484949,12142910,30844963,1396652,22033452
35868408,35.868408,-92.117652,30,2011,778687877,156773096,12495709,31658450,1414999,22342460
35868408,35.868408,-92.117652,30,2014,776950144,148125450,16825892,31262443,1409254,21946478
35868408,35.868408,-92.117652,30,2017,816519625,144198897,15575501,32612011,1411110,21855688
36205749,36.205749,-82.441084,30,2005,514060207,116189444,19041511,39758413,1606074,20463721
36205749,36.205749,-82.441084,30,2008,542514322,118960409,18441410,41990526,1659221,21099794
36205749,36.205749,-82.441084,30,2011,532965257,127098341,18343176,43317633,1665611,21377538
36205749,36.205749,-82.441084,30,2014,583846401,122660470,18477691,43259173,1652350,21328833
36205749,36.205749,-82.441084,30,2017,579821725,117703429,20922011,44381321,1661587,21548934
36270073,36.270073,-76.96502,50,2005,2330199693,385407800,17186552,73686739,3095793,98769162
36270073,36.270073,-76.96502,50,2008,2327436267,396051713,18820985,75993209,3074022,101264910
36270073,36.270073,-76.96502,50,2011,2387684415,400070099,17687160,78257952,3091066,100950474
36270073,36.270073,-76.96502,50,2014,2474807419,445932524,14285129,83679999,3218640,101137924
36270073,36.270073,-76.96502,50,2017,2443100171,457272584,15281559,88339935,3301920,102634741
36302746,36.302746,-88.377133,30,2005,366799294,72164828,6264181,21599356,882862,13011671
36302746,36.302746,-88.377133,30,2008,394098991,77113252,5224444,23541582,901103,13278858
36302746,36.302746,-88.377133,30,2011,375347403,71551637,7386985,23421850,891889,13584796
36302746,36.302746,-88.377133,30,2014,364082460,68083365,7012927,23784677,854164,13133179
36302746,36.302746,-88.377133,30,2017,413893346,68199525,5653260,25625220,878206,13094255
36451017,36.451017,-77.558866,50,2005,3195671798,467558083,19728676,88397723,3752307,111532833
36451017,36.451017,-77.558866,50,2008,3183288858,469639441,21281520,89876218,3707105,112497470
36451017,36.451017,-77.558866,50,2011,3400650422,495970246,19088219,94950980,3764907,112954227
36451017,36.451017,-77.558866,50,2014,3548359321,570102787,17927427,104893692,3993452,114108214
36451017,36.451017,-77.558866,50,2017,3485740403,607457180,19986613,113904870,4114047,115959972
36637722,36.637722,-85.794241,30,2005,478625277,78955496,6568284,24134874,1023865,14423886
36637722,36.637722,-85.794241,30,2008,473751461,80267283,6496077,24958769,1026149,14167926
36637722,36.637722,-85.794241,30,2011,460606097,85339858,8161737,26177869,1069160,14383103
36637722,36.637722,-85.794241,30,2014,432293937,88079470,7947449,28274858,1134417,14938515
36637722,36.637722,-85.794241,30,2017,426801804,86684241,7652196,28948973,1147951,14955044
36649012,36.649012,-80.939184,30,2005,622727443,114839315,13515940,30382154,1486759,23787398
36649012,36.649012,-80.939184,30,2008,656319171,111674224,13516506,31961116,1507188,23525694
36649012,36.649012,-80.939184,30,2011,655882686,120494784,14129281,34467615,1592122,23419632
36649012,36.649012,-80.939184,30,2014,608908180,126051505,15192641,35697387,1650334,23201197
36649012,36.649012,-80.939184,30,2017,615586875,129479242,14818843,38344597,1676732,23078354
36716261,36.716261,-77.068019,50,2005,2582741848,410924913,17875467,80659423,3292525,97482942
36716261,36.716261,-77.068019,50,2008,2618137085,415038454,20506919,80497714,3233214,100045018
36716261,36.716261,-77.068019,50,2011,2878718511,432673638,19153035,84601769,3269341,99223418
36716261,36.716261,-77.068019,50,2014,2998870414,492583821,16729043,91568108,3421338,99829704
36716261,36.716261,-77.068019,50,2017,2927374931,513823653,17382063,98320109,3525506,101425584
36795298,36.795298,-76.262319,30,2005,247685305,46567134,2492080,10078191,399371,10737444
36795298,36.795298,-76.262319,30,2008,229219891,48518943,3503779,10121570,389470,11731649
36795298,36.795298,-76.262319,30,2011,255550094,47537964,3327211,10091686,382932,12126422
36795298,36.795298,-76.262319,30,2014,249802727,52771605,1850123,10115964,371309,11378821
36795298,36.795298,-76.262319,30,2017,272215930,54381776,2264691,11200309,391949,11862084
36812276,36.812276,-81.647999,30,2005,675548655,135590615,17124498,41238144,1949349,25003044
36812276,36.812276,-81.647999,30,2008,630444228,125847799,16312574,40614755,1890319,24523974
36812276,36.812276,-81.647999,30,2011,594045278,136531424,18148233,42299552,1979925,24393477
36812276,36.812276,-81.647999,30,2014,562171765,139996109,20075024,44798627,2037298,24375545
36812276,36.812276,-81.647999,30,2017,538302542,139896072,20875094,48120103,2062060,24046892
36924954,36.9249543,-78.0887604,30,2005,1209825653,196919327,8789232,37108305,1528740,36557531
36924954,36.9249543,-78.0887604,30,2008,1210298651,183455865,10066490,37156701,1513824,37893951
36924954,36.9249543,-78.0887604,30,2011,1269417768,190771901,8656170,37241601,1490991,37845566
36924954,36.9249543,-78.0887604,30,2014,1357994143,205138122,8166072,40121810,1553669,38220635
36924954,36.9249543,-78.0887604,30,2017,1370282879,234032358,9338220,44694962,1608159,39189940
36995524,36.995524,-91.720252,30,2005,675107953,135217644,9509028,24613273,1781253,20758165
36995524,36.995524,-91.720252,30,2008,698539127,135282130,9461939,26379057,1847883,21764928
36995524,36.995524,-91.720252,30,2011,667264069,135557195,9745324,27287089,1918976,22406887
36995524,36.995524,-91.720252,30,2014,666892324,145018186,9723730,28659594,1971338,22865757
36995524,36.995524,-91.720252,30,2017,659323531,144089343,12162851,28894461,1977407,22750033
37035518,37.035518,-77.098007,50,2005,2529545343,402606568,19266752,84734553,3367314,89175357
37035518,37.035518,-77.098007,50,2008,2444413448,391635562,21726078,81520603,3240673,89929309
37035518,37.035518,-77.098007,50,2011,2659049808,405169245,19905196,84669294,3250858,89303970
37035518,37.035518,-77.098007,50,2014,2812143415,463398067,16965131,91010798,3414634,90116205
37035518,37.035518,-77.098007,50,2017,2783452558,483701150,17710265,97769146,3516474,91689722
37046857,37.046857,-84.626069,30,2005,650432387,117925455,13735817,34311175,1340176,18280296
37046857,37.046857,-84.626069,30,2008,676165591,126337735,11809993,36604111,1426003,18828485
37046857,37.046857,-84.626069,30,2011,662252602,132180224,11334352,38506103,1456552,18688604
37046857,37.046857,-84.626069,30,2014,652041162,124174158,9260282,37925331,1393941,18105000
37046857,37.046857,-84.626069,30,2017,639751029,120976963,8076499,39677479,1404092,18069274
37164273,37.164273,-92.751932,50,2005,1417182212,278560461,24573729,52266547,3863011,48415351
37164273,37.164273,-92.751932,50,2008,1463765332,271551268,25821883,56060943,3959818,50951138
37164273,37.164273,-92.751932,50,2011,1440860506,247129082,24225637,58522788,3860271,51036688
37164273,37.164273,-92.751932,50,2014,1418760765,241279339,26372165,58788483,3821270,50591205
37164273,37.164273,-92.751932,50,2017,1422924510,241152954,29262886,61106662,3907883,51621968
37350952,37.350952,-77.314138,30,2005,927888447,161596062,8234003,34575156,1370644,32611344
37350952,37.350952,-77.314138,30,2008,921892615,155513960,9086281,33179795,1333579,31583256
37350952,37.350952,-77.314138,30,2011,1001644832,151384261,8178650,33947424,1325249,31356391
37350952,37.350952,-77.314138,30,2014,976781214,162686234,7950730,35588487,1360701,32435788
37350952,37.350952,-77.314138,30,2017,960920972,170175113,7487846,37939973,1388604,32451624
37410237,37.410237,-93.848722,30,2005,174370883,36012315,3630169,8343928,612054,8010536
37410237,37.410237,-93.848722,30,2008,169692062,35632336,4624262,9474792,613095,8461465
37410237,37.410237,-93.848722,30,2011,176903017,28258996,4075921,9435158,594007,9106116
37410237,37.410237,-93.848722,30,2014,178711101,25909140,4665035,10011917,587776,9546793
37410237,37.410237,-93.848722,30,2017,191852193,26566066,4875008,10186257,587616,9334124
37895391,37.895391,-81.164268,30,2005,849360580,186983859,19722538,56326863,2883818,37178494
37895391,37.895391,-81.164268,30,2008,894079231,187989976,18397663,57872829,2899500,36283606
37895391,37.895391,-81.164268,30,2011,941839349,185808494,16023976,57524983,2801136,35986231
37895391,37.895391,-81.164268,30,2014,939871184,188526882,16671621,60555090,2836654,36530978
37895391,37.895391,-81.164268,30,2017,863046647,173776499,17210455,57890491,2687304,34392218
37914688,37.91468889,-76.87427778,30,2005,819943623,135212834,8509742,29304363,1210374,26033158
37914688,37.91468889,-76.87427778,30,2008,824730646,132998559,8268859,29222450,1218912,25565721
37914688,37.91468889,-76.87427778,30,2011,799387650,135729382,7714413,30344953,1214545,25127085
37914688,37.91468889,-76.87427778,30,2014,782509542,138156280,7427693,31339422,1234605,25183802
37914688,37.91468889,-76.87427778,30,2017,807225992,144686805,8022606,34549992,1293500,25344799
37950484,37.950484,-78.246087,30,2005,814443947,136093921,8792128,34638141,1587486,27580397
37950484,37.950484,-78.246087,30,2008,801725640,142524126,10414586,37162009,1605140,29171948
37950484,37.950484,-78.246087,30,2011,890743469,155752774,10440061,40229536,1694219,29078902
37950484,37.950484,-78.246087,30,2014,916155644,162720998,10423736,42437265,1751311,29579664
37950484,37.950484,-78.246087,30,2017,889318890,162376489,10812187,45325188,1772190,29299418
37962098,37.9620985,-77.7772379,50,2005,2246001041,398340927,26922689,99069464,4179032,74710945
37962098,37.9620985,-77.7772379,50,2008,2226261539,404346932,28616922,101436552,4193220,75488067
37962098,37.9620985,-77.7772379,50,2011,2226760031,412163062,27191174,105761260,4301080,75230640
37962098,37.9620985,-77.7772379,50,2014,2214618228,422749147,28559902,110401538,4396679,75891258
37962098,37.9620985,-77.7772379,50,2017,2170581319,423062388,28786932,118365210,4504011,75695533
38023017,38.023017,-76.595697,30,2005,499664488,86605026,5412480,19905184,839737,17293023
38023017,38.023017,-76.595697,30,2008,513279864,86172478,5613219,20338216,862842,17528804
38023017,38.023017,-76.595697,30,2011,488064847,90325225,5446394,21102342,837002,17383799
38023017,38.023017,-76.595697,30,2014,448965242,83884307,5014875,21049661,848007,18055787
38023017,38.023017,-76.595697,30,2017,491757019,90945707,5628164,23725904,900086,18475303
38235394,38.235394,-85.805528,30,2005,277019329,61605252,7436275,18995939,998974,12005087
38235394,38.235394,-85.805528,30,2008,304377771,69490294,7830670,21441569,1106324,13384584
38235394,38.235394,-85.805528,30,2011,263581773,62734487,7521994,20121031,1047409,12285796
38235394,38.235394,-85.805528,30,2014,271730193,60683105,8054521,20753414,1056057,12335542
38235394,38.235394,-85.805528,30,2017,312131543,64131720,8624589,22263281,1130074,13274531
38337567,38.337567,-86.859694,30,2005,354309162,89139313,7576995,22782872,1506000,17291356
38337567,38.337567,-86.859694,30,2008,332876585,87963111,6769246,24341372,1546800,17924015
38337567,38.337567,-86.859694,30,2011,328549573,87920911,7480600,23732209,1535137,17627953
38337567,38.337567,-86.859694,30,2014,323235948,83979962,8391661,23695232,1530194,17671026
38337567,38.337567,-86.859694,30,2017,313807432,82331767,8444136,24821632,1563847,17728754
38404052,38.404052,-85.9374,30,2005,302786338,67604684,7062966,19292234,1179369,13505401
38404052,38.404052,-85.9374,30,2008,330262746,73268867,7786063,21751225,1286878,14885462
38404052,38.404052,-85.9374,30,2011,279141711,67150963,7384203,20720537,1214996,13669004
38404052,38.404052,-85.9374,30,2014,263454775,61469624,7590244,19702762,1141672,12736042
38404052,38.404052,-85.9374,30,2017,292342071,62754279,8712360,20162281,1182186,13340744
38914748,38.914748,-79.849979,30,2005,697239823,191719537,22749521,61162063,3447982,37899691
38914748,38.914748,-79.849979,30,2008,721302118,191982258,22265134,62635883,3411045,38206141
38914748,38.914748,-79.849979,30,2011,684677288,174558090,21916736,60405902,3228308,37303022
38914748,38.914748,-79.849979,30,2014,701767240,176005269,22663812,65008471,3360590,38044089
38914748,38.914748,-79.849979,30,2017,683909167,173123776,22180212,64152372,3351334,37279197
38948981,38.948981,-83.406633,30,2005,436147858,100262616,10212348,28296308,1652042,22583248
38948981,38.948981,-83.406633,30,2008,475668437,99101630,11469799,29474068,1704853,24003262
38948981,38.948981,-83.406633,30,2011,478906351,88608835,10836063,29249321,1658423,23159517
38948981,38.948981,-83.406633,30,2014,518850465,88600183,11619970,31647395,1748315,24710810
38948981,38.948981,-83.406633,30,2017,495470236,89968780,12841690,30782900,1706449,24391478
39008146,39.008146,-80.718988,50,2005,1916829940,491822287,46942923,151214574,8147068,101737123
39008146,39.008146,-80.718988,50,2008,1880723923,488271141,46024647,152609718,8063206,101032497
39008146,39.008146,-80.718988,50,2011,1862084229,483116488,45747049,157981505,8220388,104112279
39008146,39.008146,-80.718988,50,2014,1772273052,447769434,43377541,154539660,7944913,100046420
39008146,39.008146,-80.718988,50,2017,1719950016,439320647,44750020,154430861,7893913,98046790
39470376,39.470376,-79.694009,30,2005,516991523,135604401,12705577,39796197,2198978,26680781
39470376,39.470376,-79.694009,30,2008,546327842,159110222,15903575,46268870,2502510,29924577
39470376,39.470376,-79.694009,30,2011,532354644,140256291,15741245,44320703,2411665,29529284
39470376,39.470376,-79.694009,30,2014,582723536,143409101,16473519,49043857,2568904,31327207
39470376,39.470376,-79.694009,30,2017,551617202,142011269,18081985,49967969,2569364,30727857
39560743,39.560743,-82.944148,30,2005,219943855,61063327,6469104,20569344,1065399,14023459
39560743,39.560743,-82.944148,30,2008,215213689,57535206,6091218,20567008,1075963,14123309
39560743,39.560743,-82.944148,30,2011,218254193,50086364,5811863,20653893,1054507,14140380
39560743,39.560743,-82.944148,30,2014,271462356,52735168,6504115,22455564,1116784,14943129
39560743,39.560743,-82.944148,30,2017,264105663,51884430,5970250,22528782,1087818,14425387
39818322,39.818322,-80.025431,30,2005,490245294,121670031,14676343,34129099,2021016,26154035
39818322,39.818322,-80.025431,30,2008,436161501,119648260,14906652,34846940,2020817,25614844
39818322,39.818322,-80.025431,30,2011,407360861,101802129,14037820,33423964,1982281,27005629
39818322,39.818322,-80.025431,30,2014,420658009,103914685,14903938,37621235,2137288,28660932
39818322,39.818322,-80.025431,30,2017,407561146,106488957,15525171,39256753,2165895,28456145
39820233,39.820233,-83.643496,30,2005,61774274,12887335,1634813,4752681,231607,3923702
39820233,39.820233,-83.643496,30,2008,62631651,14118774,1864111,5558702,264371,4063759
39820233,39.820233,-83.643496,30,2011,63719248,11760409,1604004,5469257,257862,4151605
39820233,39.820233,-83.643496,30,2014,62052568,10922960,2123203,4997640,248506,4068086
39820233,39.820233,-83.643496,30,2017,53767112,11363991,3160505,5096779,263830,3937261
39857274,39.857274,-77.696576,30,2005,448817724,103046052,11928673,26553957,1420246,20157402
39857274,39.857274,-77.696576,30,2008,423048394,98067911,12150385,27012802,1426497,19886757
39857274,39.857274,-77.696576,30,2011,411358485,90249335,11430716,28522958,1481372,20529188
39857274,39.857274,-77.696576,30,2014,401265616,84715305,11588091,28880793,1491628,20682000
39857274,39.857274,-77.696576,30,2017,396239861,85038952,12847559,28667135,1486701,20733240
39867113,39.867113,-84.919305,30,2005,104626725,19381863,1948745,5713831,379878,5229147
39867113,39.867113,-84.919305,30,2008,92913853,16727361,1861881,5603154,351151,4758660
39867113,39.867113,-84.919305,30,2011,106108677,18815759,1894482,6552814,392327,5562625
39867113,39.867113,-84.919305,30,2014,110793835,19240278,1785294,6834774,399463,5649637
39867113,39.867113,-84.919305,30,2017,98255536,19808390,3769281,7575884,436863,5935928
39907221,39.907221,-79.674008,30,2005,508044047,124685719,15836101,32063850,1872558,23775620
39907221,39.907221,-79.674008,30,2008,465700845,119846859,14883320,30568477,1835152,23683314
39907221,39.907221,-79.674008,30,2011,439139202,101840386,13294916,30810710,1846898,24342522
39907221,39.907221,-79.674008,30,2014,491510791,110576364,15162732,36435348,2030767,26635754
39907221,39.907221,-79.674008,30,2017,491359281,108994936,14999484,37015594,2023488,26174284
39936376,39.9363,-76.98054,30,2005,230255166,59023572,6066874,15288234,822450,11052979
39936376,39.9363,-76.98054,30,2008,220553383,57850827,5685259,16047667,824974,10706754
39936376,39.9363,-76.98054,30,2011,192419992,50012904,5576322,16721557,812470,10824082
39936376,39.9363,-76.98054,30,2014,208946049,44300292,5047108,16292872,771637,10594488
39936376,39.9363,-76.98054,30,2017,203377282,45073142,6417535,17287571,803747,10851838
40405061,40.405061,-78.757136,30,2005,606140524,155098281,15136842,37659351,2409814,30501893
40405061,40.405061,-78.757136,30,2008,597605503,146202189,15813771,36834462,2357893,30347421
40405061,40.405061,-78.757136,30,2011,622644854,138493097,17644230,40993286,2505023,31585343
40405061,40.405061,-78.757136,30,2014,647095480,143886539,17965623,44895890,2670360,32466257
40405061,40.405061,-78.757136,30,2017,638390054,153114435,20084554,48904873,2766212,32652296
40543814,40.543814,-77.368274,30,2005,502934997,140183985,15872015,36908144,1877922,25060077
40543814,40.543814,-77.368274,30,2008,523491317,138838269,16794279,38131732,1940585,25396721
40543814,40.543814,-77.368274,30,2011,448071167,119340898,17359773,36014261,1828659,24362617
40543814,40.543814,-77.368274,30,2014,421828219,115714258,15884029,37371281,1848043,24352837
40543814,40.543814,-77.368274,30,2017,430662498,114149808,17142495,38164875,1890091,24695100
40670681,40.670681,-78.238495,30,2005,641151747,174930876,15063908,39627295,2419353,32152939
40670681,40.670681,-78.238495,30,2008,619937195,164062080,14862199,38971662,2347864,31837685
40670681,40.670681,-78.238495,30,2011,604360284,152353500,16997159,40404101,2350734,32034601
40670681,40.670681,-78.238495,30,2014,598639886,157826115,20564373,44737043,2552198,33441253
40670681,40.670681,-78.238495,30,2017,628017020,166197501,23392065,47801379,2720315,35191272
40681322,40.681322,-74.920957,30,2005,233383108,68258979,5991859,22242300,1096305,14863587
40681322,40.681322,-74.920957,30,2008,207969807,70340062,6193762,23919735,1163932,15476451
40681322,40.681322,-74.920957,30,2011,203465276,72179610,5536280,27819733,1255712,16606815
40681322,40.681322,-74.920957,30,2014,201586533,74007285,6354306,30265597,1385892,18388614
40681322,40.681322,-74.920957,30,2017,167281103,66583100,7872602,28305686,1269364,17229252
40817319,40.817319,-75.55899,30,2005,418596004,137633111,11829339,30045634,1636717,22744635
40817319,40.817319,-75.55899,30,2008,398339042,129842199,13555430,30817453,1631965,22428779
40817319,40.817319,-75.55899,30,2011,372493792,124824297,13639645,32763878,1677452,23172965
40817319,40.817319,-75.55899,30,2014,368176907,125489862,13844758,34739545,1741432,24547282
40817319,40.817319,-75.55899,30,2017,356522491,122725122,15965358,35636354,1756786,24170536
40817342,40.817342,-75.55327,30,2005,416259779,138486121,12004329,30270030,1639581,22670683
40817342,40.817342,-75.55327,30,2008,394705078,130012249,13629684,30865440,1624740,22192235
40817342,40.817342,-75.55327,30,2011,369434977,125021429,13633448,32803534,1669085,22882789
40817342,40.817342,-75.55327,30,2014,365109919,125833193,13848221,34802012,1736759,24302897
40817342,40.817342,-75.55327,30,2017,352609079,122405155,15933020,35563602,1746243,23854860
41473129,41.473129,-85.596321,30,2005,131015530,29683465,4912603,7683158,566013,8343726
41473129,41.473129,-85.596321,30,2008,120602006,28109818,3772817,7592671,523656,8415856
41473129,41.473129,-85.596321,30,2011,113679373,29012752,3467914,8803765,575232,9206950
41473129,41.473129,-85.596321,30,2014,134086259,30679943,4096806,9969628,640181,9980600
41473129,41.473129,-85.596321,30,2017,122382060,28966519,3564665,9480793,574480,8628871
41628639,41.628639,-93.592415,30,2005,78135540,13433160,1781934,4380735,290544,3816583
41628639,41.628639,-93.592415,30,2008,79170808,11723236,1998031,3922209,269551,4116262
41628639,41.628639,-93.592415,30,2011,68883446,10886579,2472897,4066751,281281,4326612
41628639,41.628639,-93.592415,30,2014,74537618,10480795,2785017,3939514,273121,4314469
41628639,41.628639,-93.592415,30,2017,68049585,11430133,3418346,4270198,293835,4465520
41769575,41.769575,-85.666868,50,2005,463944410,110136172,14474532,27642828,1918007,42459191
41769575,41.769575,-85.666868,50,2008,460690672,115964168,13897389,31013976,2053968,46265424
41769575,41.769575,-85.666868,50,2011,462095111,120545795,13918376,34539702,2182478,48923312
41769575,41.769575,-85.666868,50,2014,463555614,122176361,19733229,37164008,2297570,50987826
41769575,41.769575,-85.666868,50,2017,427807817,113652139,20405800,35100820,2205009,48393203
41785908,41.785908,-76.788011,30,2005,663453750,152248438,18525865,36486916,2601656,32008009
41785908,41.785908,-76.788011,30,2008,608807377,148424955,16821958,36445607,2490740,30707862
41785908,41.785908,-76.788011,30,2011,630917310,157985743,16151362,40997721,2726730,33027378
41785908,41.785908,-76.788011,30,2014,583996114,154617794,13851479,41451943,2707834,31868266
41785908,41.785908,-76.788011,30,2017,578989185,155557277,12395997,42247454,2737075,32072882
41835617,41.83561,-79.661941,30,2005,566610627,157886187,15183865,40961915,2676520,32755915
41835617,41.83561,-79.661941,30,2008,576182482,166758542,16319180,43598104,2825547,34474868
41835617,41.83561,-79.661941,30,2011,542748387,155106035,14891285,43280356,2697330,31618026
41835617,41.83561,-79.661941,30,2014,541672807,150811677,13664291,43307261,2670645,31117667
41835617,41.83561,-79.661941,30,2017,527556143,150694016,14889911,43535710,2678578,30832823
41864063,41.864063,-79.328352,30,2005,615813369,175631135,19199632,48510390,3196476,37483259
41864063,41.864063,-79.328352,30,2008,610772267,180100228,19804068,49918991,3250967,37502740
41864063,41.864063,-79.328352,30,2011,602903956,179242671,19195513,52561255,3415457,38159156
41864063,41.864063,-79.328352,30,2014,634127042,175943997,18505835,53611898,3403998,37916361
41864063,41.864063,-79.328352,30,2017,652578556,176472501,19680248,54779872,3429811,38226721
41873818,41.873818,-72.088698,30,2005,606073955,178996962,14757449,46108452,2281201,31249477
41873818,41.873818,-72.088698,30,2008,561733133,159311588,14651578,43848265,2169544,30742124
41873818,41.873818,-72.088698,30,2011,565470260,149384190,13141870,43961218,2106711,29394448
41873818,41.873818,-72.088698,30,2014,610008988,155690963,13156064,48297360,2269847,31407241
41873818,41.873818,-72.088698,30,2017,597114309,156405188,14410839,50871271,2343280,32295956
41898305,41.898305,-77.779045,30,2005,717749932,185266671,21198248,46790009,3328868,39316212
41898305,41.898305,-77.779045,30,2008,734584528,186791720,21209878,49293376,3406747,39741738
41898305,41.898305,-77.779045,30,2011,692409493,172733029,19364243,48697099,3315588,38697051
41898305,41.898305,-77.779045,30,2014,703832698,170482522,17773104,50841474,3400547,39201796
41898305,41.898305,-77.779045,30,2017,682218791,157995128,16632006,49206306,3243494,37413396
42049421,42.049421,-75.418361,30,2005,696509894,201874693,21555318,49538692,3468205,38912633
42049421,42.049421,-75.418361,30,2008,694837555,197029864,22222591,49498035,3441514,38753519
42049421,42.049421,-75.418361,30,2011,713430290,192900166,22970299,50409218,3417366,39009936
42049421,42.049421,-75.418361,30,2014,695243340,185464366,23441307,50117341,3344545,39173767
42049421,42.049421,-75.418361,30,2017,700283502,188281397,23262688,52576860,3459487,40004289
42096761,42.096761,-77.244618,30,2005,712966857,168801264,12321271,37140081,2563884,33018724
42096761,42.096761,-77.244618,30,2008,690443077,170278157,14309511,38929181,2558743,32990725
42096761,42.096761,-77.244618,30,2011,668509919,169456256,14350777,40722908,2641491,33722750
42096761,42.096761,-77.244618,30,2014,623156539,166245146,12806890,41871504,2633254,32391046
42096761,42.096761,-77.244618,30,2017,602209590,165115161,13254466,42824946,2644363,31807672
42321152,42.321152,-85.179714,30,2005,211263429,49685137,6479067,12656309,837128,22798366
42321152,42.321152,-85.179714,30,2008,216341978,56102368,6555617,15208860,986108,26426078
42321152,42.321152,-85.179714,30,2011,210293148,51432946,7256125,14986375,950588,27176542
42321152,42.321152,-85.179714,30,2014,195692456,55073083,12554652,17046360,1029157,27993929
42321152,42.321152,-85.179714,30,2017,171927619,51010010,11110967,16234796,1021454,27589912
42407033,42.407033,-74.625214,30,2005,673174659,186450565,20081919,44709450,3117895,35419295
42407033,42.407033,-74.625214,30,2008,668206969,176560581,21625902,42627379,2968365,34368609
42407033,42.407033,-74.625214,30,2011,655112588,163995881,22224477,43007804,2879707,33708926
42407033,42.407033,-74.625214,30,2014,650922400,165160061,24407436,45016835,2942931,34852408
42407033,42.407033,-74.625214,30,2017,607745749,159456922,24038301,45022666,2888283,33524655
42513004,42.513004,-76.842567,30,2005,485421787,119043279,10867694,27287920,1825564,23920454
42513004,42.513004,-76.842567,30,2008,452942305,122543419,11885835,28785555,1859459,24055002
42513004,42.513004,-76.842567,30,2011,444872112,123376653,11755175,31248702,1949469,25088739
42513004,42.513004,-76.842567,30,2014,435911094,119351802,11461570,32092625,1971777,24813058
42513004,42.513004,-76.842567,30,2017,448002803,124607311,11973206,33973672,2052769,25339379
42525533,42.525533,-78.456054,30,2005,575671626,130292945,14335905,30017263,2128647,28391298
42525533,42.525533,-78.456054,30,2008,596840991,140004934,14819428,32360145,2264233,29454081
42525533,42.525533,-78.456054,30,2011,522385788,125915826,13436521,31307883,2153941,28033791
42525533,42.525533,-78.456054,30,2014,533001504,127607325,13134696,33101817,2273970,29931187
42525533,42.525533,-78.456054,30,2017,535194069,131999017,14280694,35071090,2360563,30472641
42583369,42.583369,-87.885386,30,2005,43659261,9222186,1263315,2027553,141736,3315191
42583369,42.583369,-87.885386,30,2008,51164029,10335912,1688770,2354710,178395,5103596
42583369,42.583369,-87.885386,30,2011,43464624,9678891,1528694,2534206,153102,3696091
42583369,42.583369,-87.885386,30,2014,39592097,10280600,2175558,2725726,170875,4340476
42583369,42.583369,-87.885386,30,2017,38359773,9282369,2365535,2679192,175295,4489753
42757047,42.757047,-86.088249,30,2005,159753012,40560596,5555724,8177119,577604,16929208
42757047,42.757047,-86.088249,30,2008,150802451,40341208,6063993,8666875,608999,17224184
42757047,42.757047,-86.088249,30,2011,158141298,43802542,6154821,9598116,671194,18365267
42757047,42.757047,-86.088249,30,2014,145851847,38851093,7856512,9359831,680414,18495185
42757047,42.757047,-86.088249,30,2017,142932625,38485949,9017161,9821873,679023,18377509
42816417,42.816417,-71.988552,30,2005,834212010,252909630,30426846,57801357,3326382,41146673
42816417,42.816417,-71.988552,30,2008,843623313,259017240,30817128,59300076,3423961,42994997
42816417,42.816417,-71.988552,30,2011,802476082,246077323,28792198,59667990,3378730,41853674
42816417,42.816417,-71.988552,30,2014,817585597,232834229,30679622,60148786,3328910,41402463
42816417,42.816417,-71.988552,30,2017,826195591,228653057,33866511,61785266,3310232,41274942
43341982,43.341982,-71.263863,30,2005,894750792,211161315,25316640,44442396,2860857,37247485
43341982,43.341982,-71.263863,30,2008,952530593,212599802,26744572,45901337,2944356,38101443
43341982,43.341982,-71.263863,30,2011,1009749555,226673265,26341497,50267075,3182302,40580824
43341982,43.341982,-71.263863,30,2014,945187732,212220868,24377112,50087564,3041659,39270538
43341982,43.341982,-71.263863,30,2017,891950960,198791795,22890194,48991231,2981795,38598651
43486199,43.486199,-72.487949,30,2005,979615764,238123291,36866461,54169489,4021517,46121273
43486199,43.486199,-72.487949,30,2008,983399854,235593756,36572045,55941791,4013758,45363206
43486199,43.486199,-72.487949,30,2011,950909822,224826057,34463912,54983825,3909051,44413342
43486199,43.486199,-72.487949,30,2014,940437277,213978255,32085777,55786707,3926975,44432118
43486199,43.486199,-72.487949,30,2017,919615850,207540524,33145724,56903549,3894515,43977483
43529184,43.529184,-72.957187,30,2005,803750991,181373233,27670831,44831409,3334044,39036905
43529184,43.529184,-72.957187,30,2008,809334583,182203664,24863760,47395484,3407010,39185894
43529184,43.529184,-72.957187,30,2011,778605025,173194347,23519133,47070219,3320703,38055600
43529184,43.529184,-72.957187,30,2014,799161059,166286733,24194654,49255965,3364560,39146874
43529184,43.529184,-72.957187,30,2017,777053363,162858623,24439759,50116618,3335901,38925093
43638895,43.638895,-84.984353,30,2005,384564316,86566226,10302522,15043911,1254081,36991652
43638895,43.638895,-84.984353,30,2008,404408382,95242498,9913252,17296060,1419791,41602107
43638895,43.638895,-84.984353,30,2011,382415271,95428959,10049366,18794369,1482488,42205181
43638895,43.638895,-84.984353,30,2014,393235371,101760903,11460056,19736985,1489212,42724881
43638895,43.638895,-84.984353,30,2017,375492694,94398212,14405601,19327703,1458575,43721916
43674714,43.674714,-87.78178,30,2005,106259529,24126200,2130345,4175019,355483,11677579
43674714,43.674714,-87.78178,30,2008,97135660,24483913,2551156,4443794,365587,11764089
43674714,43.674714,-87.78178,30,2011,111290890,27005632,2812138,5035926,401260,12964476
43674714,43.674714,-87.78178,30,2014,114960761,28950805,3020965,5316982,424044,13720267
43674714,43.674714,-87.78178,30,2017,106309600,27894645,2713317,5380815,414035,13120698
43683573,43.683573,-84.950326,30,2005,411555690,92330346,11024244,15699635,1339466,39724785
43683573,43.683573,-84.950326,30,2008,443333247,101406126,10984909,18112782,1507222,44897206
43683573,43.683573,-84.950326,30,2011,416678447,100037266,11435956,19533706,1560825,45339128
43683573,43.683573,-84.950326,30,2014,434808051,107155502,13214999,21114364,1603135,46415828
43683573,43.683573,-84.950326,30,2017,413673689,100866168,16053508,20763364,1590650,47906052
43780944,43.780944,-89.321071,30,2005,201144376,67265741,7655914,12082105,870594,27629337
43780944,43.780944,-89.321071,30,2008,209523079,66647606,8374209,12443410,949272,29897807
43780944,43.780944,-89.321071,30,2011,220857272,68164642,9323978,13148466,960809,31460168
43780944,43.780944,-89.321071,30,2014,226879451,68256317,9170268,13674357,987298,32391214
43780944,43.780944,-89.321071,30,2017,212121907,63161333,9472066,13654712,993738,32141784
43818884,43.818884,-84.76832,30,2005,509932611,108511861,12213582,17329437,1578688,48280856
43818884,43.818884,-84.76832,30,2008,559503293,122314144,12866889,20079138,1797033,55511230
43818884,43.818884,-84.76832,30,2011,571767421,123516000,12887594,21681206,1809540,54886751
43818884,43.818884,-84.76832,30,2014,555537560,127409738,13816945,23164730,1793690,56665159
43818884,43.818884,-84.76832,30,2017,564968119,126860616,17269518,23829038,1873604,60467141
44194797,44.194797,-75.966102,30,2005,343465400,64465007,13819475,12414397,1093397,19737618
44194797,44.194797,-75.966102,30,2008,294714096,55995373,11652465,10672035,982595,18684387
44194797,44.194797,-75.966102,30,2011,291994112,51991772,12310247,10883478,963460,18656601
44194797,44.194797,-75.966102,30,2014,274620241,46050336,11579199,10440248,919874,18047943
44194797,44.194797,-75.966102,30,2017,278302311,47235300,11243246,11567295,912278,16815143
44239527,44.239527,-86.276807,30,2005,376793086,107883957,9666886,17983854,1282223,38297005
44239527,44.239527,-86.276807,30,2008,374766374,112368154,10438959,18977359,1371484,39147195
44239527,44.239527,-86.276807,30,2011,384707730,113981307,10672216,21047894,1444262,39523419
44239527,44.239527,-86.276807,30,2014,397527831,111573801,10204119,21935881,1416475,38864450
44239527,44.239527,-86.276807,30,2017,359245194,109306364,11409317,22041469,1420356,38340983
44266679,44.266679,-71.546017,30,2005,1465914329,247229316,47282824,44435555,3762131,47970945
44266679,44.266679,-71.546017,30,2008,1512299672,242586566,45620474,44894891,3741999,47509285
44266679,44.266679,-71.546017,30,2011,1533375543,237811793,46054631,45926887,3834487,48425714
44266679,44.266679,-71.546017,30,2014,1524689862,233281190,43584156,47512323,3877994,49766880
44266679,44.266679,-71.546017,30,2017,1663326132,242140077,44720937,50291622,4000607,50576259
44490127,44.490127,-73.489568,30,2005,692507413,134696628,25645197,25396317,2112928,27700867
44490127,44.490127,-73.489568,30,2008,706970354,133739376,25849667,26214134,2162449,28444755
44490127,44.490127,-73.489568,30,2011,688755630,125896133,23533245,25581270,2047308,27138384
44490127,44.490127,-73.489568,30,2014,682232449,129454595,22530254,26405720,2103671,27037243
44490127,44.490127,-73.489568,30,2017,716708991,135741004,22835313,28151287,2195049,28088340
44653897,44.653897,-84.698664,30,2005,909853857,200683302,21237730,26394646,2300217,82711352
44653897,44.653897,-84.698664,30,2008,897556878,191942097,19891347,25500118,2209675,80159809
44653897,44.653897,-84.698664,30,2011,918530123,192410887,19060926,27258915,2295201,82339955
44653897,44.653897,-84.698664,30,2014,904666246,189007305,18352401,28501529,2313209,82875024
44653897,44.653897,-84.698664,30,2017,900720790,185606878,23044194,28284541,2252368,80604578
44800155,44.800155,-70.206902,30,2005,1552167399,246389497,42015822,37895538,3605361,51463483
44800155,44.800155,-70.206902,30,2008,1596890308,241082703,41767043,37552763,3611316,51470341
44800155,44.800155,-70.206902,30,2011,1648832159,246525970,39590302,36907945,3663301,51927652
44800155,44.800155,-70.206902,30,2014,1610768162,240770926,37170712,37011971,3594672,50424203
44800155,44.800155,-70.206902,30,2017,1564151250,230874862,37403583,35636412,3497165,49482326
44885038,44.88503,-88.153486,30,2005,531466243,122201446,10976530,17158891,1460728,46565035
44885038,44.88503,-88.153486,30,2008,526412345,122479402,12233421,17660135,1499517,47081041
44885038,44.88503,-88.153486,30,2011,519736576,122304548,13170039,18191364,1514710,48103745
44885038,44.88503,-88.153486,30,2014,539738700,123919952,12731789,19209939,1552667,50016933
44885038,44.88503,-88.153486,30,2017,540551732,121828449,11606586,19396757,1542466,49664976
44893328,44.893328,-91.879588,50,2005,908769442,179467362,20051443,35644093,2767744,84893818
44893328,44.893328,-91.879588,50,2008,971811968,192494970,22430186,39732624,3017384,90780749
44893328,44.893328,-91.879588,50,2011,992784083,190881461,23998050,40951351,3095093,96390869
44893328,44.893328,-91.879588,50,2014,1039317190,197836903,25692952,44104753,3229492,99702199
44893328,44.893328,-91.879588,50,2017,1043381488,193376494,25134958,45050924,3220401,98712992
44908828,44.908828,-74.891155,50,2005,1330061621,212377783,40964132,39204850,3708224,54054273
44908828,44.908828,-74.891155,50,2008,1365003611,205630937,42351045,39604874,3756853,54365357
44908828,44.908828,-74.891155,50,2011,1393491793,208488524,41968597,41413678,3881701,56234136
44908828,44.908828,-74.891155,50,2014,1397324808,211233500,40513581,40827767,3862168,56109627
44908828,44.908828,-74.891155,50,2017,1362788690,218678578,40299751,42304501,3877571,55595308
44964935,44.964935,-69.567872,50,2005,4677888934,659970878,108267962,95117721,9815950,146952963
44964935,44.964935,-69.567872,50,2008,4781305155,660362261,106928843,95782376,9823929,146796970
44964935,44.964935,-69.567872,50,2011,5055847239,685212922,98791510,97727934,9964547,147420137
44964935,44.964935,-69.567872,50,2014,5028711685,680333430,95323090,99219657,9853034,144465589
44964935,44.964935,-69.567872,50,2017,4933756504,673046881,90903248,99648872,9764965,140835177
44989666,44.989666,-69.010872,50,2005,4912295837,638541496,108201833,89788182,9689969,148835575
44989666,44.989666,-69.010872,50,2008,5023501786,652756343,105403495,91877209,9752411,148027681
44989666,44.989666,-69.010872,50,2011,5324113453,681692165,93851640,94227126,9898759,147871706
44989666,44.989666,-69.010872,50,2014,5306039937,685821787,92717212,96459701,9803513,144863809
44989666,44.989666,-69.010872,50,2017,5160455045,678391778,87674384,97527132,9702015,140596664
45033761,45.033761,-89.845612,30,2005,622369749,119966436,11006638,17562989,1611114,57680629
45033761,45.033761,-89.845612,30,2008,615555863,121741122,11866972,18217409,1661879,59378553
45033761,45.033761,-89.845612,30,2011,669967766,124432857,12499454,19366528,1710600,61829277
45033761,45.033761,-89.845612,30,2014,706765929,123603484,11698192,20060936,1720871,61579746
45033761,45.033761,-89.845612,30,2017,718198991,124043155,12081623,21097855,1739550,61492280
45056931,45.056931,-87.732645,30,2005,542632915,121996901,9933769,14033326,1360822,46661489
45056931,45.056931,-87.732645,30,2008,534658716,122185753,10617523,14286891,1404149,47776093
45056931,45.056931,-87.732645,30,2011,528109462,121278372,11322462,14934843,1431461,47661710
45056931,45.056931,-87.732645,30,2014,525075205,119075351,11100629,15330705,1416246,48054336
45056931,45.056931,-87.732645,30,2017,545164756,126497641,11993046,16219550,1473815,49714509
45122157,45.122157,-92.53804,30,2005,231162345,43691829,4607421,9649614,731041,22723257
45122157,45.122157,-92.53804,30,2008,247889098,46222766,5635324,10704073,796965,25334070
45122157,45.122157,-92.53804,30,2011,267902106,49657561,6583337,11869601,871273,28484090
45122157,45.122157,-92.53804,30,2014,284235808,51983585,7379492,12408002,895934,28888845
45122157,45.122157,-92.53804,30,2017,282994315,50911599,7431652,12648779,892972,28403389
45207589,45.207589,-84.989216,30,2005,659962762,167458200,14182863,25901824,1940399,60488533
45207589,45.207589,-84.989216,30,2008,634452964,160867601,14029739,26120996,1884485,56935275
45207589,45.207589,-84.989216,30,2011,619180413,159418609,14326705,27149132,1967791,57506360
45207589,45.207589,-84.989216,30,2014,612800603,163584572,16823661,28820204,2028856,58866336
45207589,45.207589,-84.989216,30,2017,615097731,165676803,21823524,30155088,2079565,59860856
45437535,45.437535,-91.101375,30,2005,812078324,148390881,12137466,23517026,2067100,71185549
45437535,45.437535,-91.101375,30,2008,784996252,144510467,13159908,23480303,2094929,72160643
45437535,45.437535,-91.101375,30,2011,798834201,147342844,15005842,24361254,2187693,75061201
45437535,45.437535,-91.101375,30,2014,793381850,146173102,13949038,24849983,2165889,73147366
45437535,45.437535,-91.101375,30,2017,801707098,148741853,13938701,25683364,2207184,73078537
45774245,45.774245,-87.839486,30,2005,1181470722,259309447,23546083,28975279,3016896,109288485
45774245,45.774245,-87.839486,30,2008,1202126318,266129236,24302815,29887824,3103586,113659025
45774245,45.774245,-87.839486,30,2011,1143213622,258294118,24929824,29590855,3005117,107628428
45774245,45.774245,-87.839486,30,2014,1102903977,244998910,26402478,29177561,2898943,104710161
45774245,45.774245,-87.839486,30,2017,1120627056,251348528,25817003,30386041,2950370,105839432
45781846,45.781846,-87.994955,30,2005,1159063828,259133441,23327361,30226255,3063864,108544640
45781846,45.781846,-87.994955,30,2008,1155829863,258321254,24889073,30755289,3104277,111650658
45781846,45.781846,-87.994955,30,2011,1144310912,260737551,26263357,31277315,3108990,109095808
45781846,45.781846,-87.994955,30,2014,1115951223,247064489,26595562,31046077,3024403,106749097
45781846,45.781846,-87.994955,30,2017,1109539301,248883066,24745174,32013200,3042584,106264670
46003125,46.003125,-91.499608,30,2005,988448283,191468256,20961341,29230714,2486377,84601318
46003125,46.003125,-91.499608,30,2008,936602292,180992618,21798867,28421975,2417459,82507126
46003125,46.003125,-91.499608,30,2011,918119878,175212629,21531461,28354069,2380593,82742117
46003125,46.003125,-91.499608,30,2014,983078030,177266267,21549809,29388094,2408018,83529527
46003125,46.003125,-91.499608,30,2017,996023828,178662466,21259807,29881586,2403848,82249452
46439796,46.439796,-90.200797,30,2005,979010123,200018860,20703168,28585731,2451743,82830083
46439796,46.439796,-90.200797,30,2008,936032325,184074576,19334590,27034477,2308157,81176367
46439796,46.439796,-90.200797,30,2011,966438210,182069444,18686552,28244950,2295022,79587685
46439796,46.439796,-90.200797,30,2014,965456820,180629667,18423213,28659233,2280177,76627541
46439796,46.439796,-90.200797,30,2017,1017749549,186134846,18476042,29896212,2343026,77676896
46633106,46.633106,-68.436101,30,2005,2333190325,225141586,37721856,33443209,4010845,58858840
46633106,46.633106,-68.436101,30,2008,2335750122,224359673,35610032,32853569,3910138,58068412
46633106,46.633106,-68.436101,30,2011,2305737351,226064167,34020345,31626380,3778038,57381556
46633106,46.633106,-68.436101,30,2014,2300207517,244500649,33458101,33474272,3859133,57329217
46633106,46.633106,-68.436101,30,2017,2176616582,256069691,29531879,33430232,3861327,57537877
46733976,46.733976,-92.082123,30,2005,745687572,149979057,21008860,16538624,2006017,73620878
46733976,46.733976,-92.082123,30,2008,820182726,147298163,22790528,17077778,2023630,75083985
46733976,46.733976,-92.082123,30,2011,899676936,146202332,24285105,17244568,2026169,76487345
46733976,46.733976,-92.082123,30,2014,938716945,150017833,23657777,17796922,2061919,77900026
46733976,46.733976,-92.082123,30,2017,963791518,147956559,22510879,17805657,2027144,75688503
47587306,47.587306,-93.686021,30,2005,1075107334,172739088,27283713,19971611,2346356,99100279
47587306,47.587306,-93.686021,30,2008,1071329791,161939828,24793871,19573783,2222926,97719331
47587306,47.587306,-93.686021,30,2011,1058094543,161162851,24183734,19909893,2208631,98405246
47587306,47.587306,-93.686021,30,2014,1081678907,174337350,24529474,20881472,2318845,100286048
47587306,47.587306,-93.686021,30,2017,1133236403,183433585,24729123,21227677,2348928,101799925
